{
	"info": {
		"_postman_id": "fc1c5d7c-14b3-47f3-9861-0180cd942e86",
		"name": "Challenge Chapter 4",
		"schema": "https://schema.getpostman.com/json/collection/v2.1.0/collection.json"
	},
	"item": [
		{
			"name": "User Game",
			"item": [
				{
					"name": "Get All User",
					"request": {
						"method": "GET",
						"header": [],
						"url": {
							"raw": "http://localhost:8000/user",
							"protocol": "http",
							"host": [
								"localhost"
							],
							"port": "8000",
							"path": [
								"user"
							]
						}
					},
					"response": []
				},
				{
					"name": "Get Single User",
					"request": {
						"method": "GET",
						"header": [],
						"url": {
							"raw": "localhost:8000/user/1",
							"host": [
								"localhost"
							],
							"port": "8000",
							"path": [
								"user",
								"1"
							]
						}
					},
					"response": []
				},
				{
					"name": "Create New User",
					"request": {
						"method": "POST",
						"header": [],
						"body": {
							"mode": "raw",
							"raw": "{\r\n    \"username\": \"kurniawanc\",\r\n    \"password\": \"rahasia\"\r\n}",
							"options": {
								"raw": {
									"language": "json"
								}
							}
						},
						"url": {
							"raw": "localhost:8000/user/",
							"host": [
								"localhost"
							],
							"port": "8000",
							"path": [
								"user",
								""
							]
						}
					},
					"response": []
				},
				{
					"name": "Update Single User",
					"request": {
						"method": "PATCH",
						"header": [],
						"body": {
							"mode": "raw",
							"raw": "{\r\n    \r\n}"
						},
						"url": {
							"raw": "localhost:8000/user/1",
							"host": [
								"localhost"
							],
							"port": "8000",
							"path": [
								"user",
								"1"
							]
						}
					},
					"response": []
				},
				{
					"name": "Delete Single User",
					"request": {
						"method": "DELETE",
						"header": [],
						"url": {
							"raw": "localhost:8000/user/4",
							"host": [
								"localhost"
							],
							"port": "8000",
							"path": [
								"user",
								"4"
							]
						}
					},
					"response": []
				}
			]
		},
		{
			"name": "User Game Biodata",
			"item": [
				{
					"name": "Get Single User Biodata",
					"request": {
						"method": "GET",
						"header": [],
						"url": {
							"raw": "http://localhost:8000/biodata/5",
							"protocol": "http",
							"host": [
								"localhost"
							],
							"port": "8000",
							"path": [
								"biodata",
								"5"
							]
						}
					},
					"response": []
				},
				{
					"name": "Create New User Biodata",
					"request": {
						"method": "POST",
						"header": [],
						"url": {
							"raw": "http://localhost:8000/biodata/",
							"protocol": "http",
							"host": [
								"localhost"
							],
							"port": "8000",
							"path": [
								"biodata",
								""
							]
						}
					},
					"response": []
				},
				{
					"name": "Update Single User Biodata",
					"request": {
						"method": "PATCH",
						"header": [],
						"body": {
							"mode": "raw",
							"raw": "{\r\n    \"country\": \"USA\",\r\n    \"email\": \"kurniawanc@gmail.com\"\r\n}",
							"options": {
								"raw": {
									"language": "json"
								}
							}
						},
						"url": {
							"raw": "http://localhost:8000/biodata/5",
							"protocol": "http",
							"host": [
								"localhost"
							],
							"port": "8000",
							"path": [
								"biodata",
								"5"
							]
						}
					},
					"response": []
				},
				{
					"name": "Delete Single User Biodata",
					"request": {
						"method": "DELETE",
						"header": [],
						"url": {
							"raw": "http://localhost:8000/biodata/5",
							"protocol": "http",
							"host": [
								"localhost"
							],
							"port": "8000",
							"path": [
								"biodata",
								"5"
							]
						}
					},
					"response": []
				}
			]
		},
		{
			"name": "User Game Histories",
			"item": [
				{
					"name": "Get All Users Game Histories",
					"request": {
						"method": "GET",
						"header": [],
						"url": {
							"raw": "http://localhost:8000/game",
							"protocol": "http",
							"host": [
								"localhost"
							],
							"port": "8000",
							"path": [
								"game"
							]
						}
					},
					"response": []
				},
				{
					"name": "Get Single User Game Histories",
					"request": {
						"method": "GET",
						"header": [],
						"url": {
							"raw": "http://localhost:8000/game/1",
							"protocol": "http",
							"host": [
								"localhost"
							],
							"port": "8000",
							"path": [
								"game",
								"1"
							]
						}
					},
					"response": []
				},
				{
					"name": "Create New User Game Histories",
					"request": {
						"method": "POST",
						"header": [],
						"body": {
							"mode": "raw",
							"raw": "{\r\n    \"title\": \"League of Legends\",\r\n    \"publisher\": \"Riot\",\r\n    \"score\": 75,\r\n    \"hours_time\": 50\r\n}",
							"options": {
								"raw": {
									"language": "json"
								}
							}
						},
						"url": {
							"raw": "http://localhost:8000/game/5",
							"protocol": "http",
							"host": [
								"localhost"
							],
							"port": "8000",
							"path": [
								"game",
								"5"
							]
						}
					},
					"response": []
				},
				{
					"name": "Update Single User Game History",
					"request": {
						"method": "PATCH",
						"header": [],
						"body": {
							"mode": "raw",
							"raw": "{\r\n    \"score\": 80,\r\n    \"hours_time\": 60\r\n}",
							"options": {
								"raw": {
									"language": "json"
								}
							}
						},
						"url": {
							"raw": "http://localhost:8000/game/5?gameId=10",
							"protocol": "http",
							"host": [
								"localhost"
							],
							"port": "8000",
							"path": [
								"game",
								"5"
							],
							"query": [
								{
									"key": "gameId",
									"value": "10"
								}
							]
						}
					},
					"response": []
				},
				{
					"name": "Delete Single User Game History",
					"request": {
						"method": "DELETE",
						"header": [],
						"url": {
							"raw": "http://localhost:8000/game/5?gameId=10",
							"protocol": "http",
							"host": [
								"localhost"
							],
							"port": "8000",
							"path": [
								"game",
								"5"
							],
							"query": [
								{
									"key": "gameId",
									"value": "10"
								}
							]
						}
					},
					"response": []
				}
			]
		}
	]
}